{
  "results": [
    {
      "popularity": 178.983,
      "vote_count": 9,
      "video": false,
      "poster_path": "/1Duc3EBiegywczxTWekvy03HWai.jpg",
      "id": 554993,
      "adult": false,
      "backdrop_path": "/oCFbh4Mrd0fuGanCgIF6sG27WGD.jpg",
      "original_language": "sv",
      "original_title": "Britt-Marie var här",
      "genre_ids": [
        35,
        18
      ],
      "title": "Britt-Marie Was Here",
      "vote_average": 4.3,
      "overview": "Britt-Marie, a woman in her sixties, decides to leave her husband and start anew. Having been housewife for most of her life and and living in small backwater town of Borg, there isn't many jobs available and soon she finds herself fending a youth football team.",
      "release_date": "2019-01-25"
    },
    {
      "popularity": 75.898,
      "vote_count": 929,
      "video": false,
      "poster_path": "/wxPhn4ef1EAo5njxwBkAEVrlJJG.jpg",
      "id": 514847,
      "adult": false,
      "backdrop_path": "/naXUDz0VGK7aaPlEpsuYW8kNVsr.jpg",
      "original_language": "en",
      "original_title": "The Hunt",
      "genre_ids": [
        28,
        27,
        53
      ],
      "title": "The Hunt",
      "vote_average": 6.7,
      "overview": "Twelve strangers wake up in a clearing. They don't know where they are—or how they got there. In the shadow of a dark internet conspiracy theory, ruthless elitists gather at a remote location to hunt humans for sport. But their master plan is about to be derailed when one of the hunted turns the tables on her pursuers.",
      "release_date": "2020-03-11"
    },
    {
      "popularity": 67.57,
      "vote_count": 2241,
      "video": false,
      "poster_path": "/f4aul3FyD3jv3v4bul1IrkWZvzq.jpg",
      "id": 508439,
      "adult": false,
      "backdrop_path": "/xFxk4vnirOtUxpOEWgA1MCRfy6J.jpg",
      "original_language": "en",
      "original_title": "Onward",
      "genre_ids": [
        12,
        16,
        35,
        14,
        10751
      ],
      "title": "Onward",
      "vote_average": 7.9,
      "overview": "In a suburban fantasy world, two teenage elf brothers embark on an extraordinary quest to discover if there is still a little magic left out there.",
      "release_date": "2020-02-29"
    },
    {
      "popularity": 61.325,
      "vote_count": 2654,
      "video": false,
      "poster_path": "/8WUVHemHFH2ZIP6NWkwlHWsyrEL.jpg",
      "id": 338762,
      "adult": false,
      "backdrop_path": "/ocUrMYbdjknu2TwzMHKT9PBBQRw.jpg",
      "original_language": "en",
      "original_title": "Bloodshot",
      "genre_ids": [
        28,
        878
      ],
      "title": "Bloodshot",
      "vote_average": 7,
      "overview": "After he and his wife are murdered, marine Ray Garrison is resurrected by a team of scientists. Enhanced with nanotechnology, he becomes a superhuman, biotech killing machine—'Bloodshot'. As Ray first trains with fellow super-soldiers, he cannot recall anything from his former life. But when his memories flood back and he remembers the man that killed both him and his wife, he breaks out of the facility to get revenge, only to discover that there's more to the conspiracy than he thought.",
      "release_date": "2020-03-05"
    },
    {
      "popularity": 55.366,
      "vote_count": 2,
      "video": false,
      "poster_path": "/fAuHbTctbSCIXTh8iA55vMOTAhi.jpg",
      "id": 522098,
      "adult": false,
      "backdrop_path": "/9vkVMTvz85wCcENy4malABuA0ib.jpg",
      "original_language": "en",
      "original_title": "Babyteeth",
      "genre_ids": [
        35,
        18
      ],
      "title": "Babyteeth",
      "vote_average": 1,
      "overview": "When seriously ill teenager Milla falls madly in love with smalltime drug dealer Moses, it’s her parents’ worst nightmare. But as Milla’s first brush with love brings her a new lust for life, things get messy and traditional morals go out the window. Milla soon shows everyone in her orbit – her parents, Moses, a sensitive music teacher, a budding child violinist, and a disarmingly honest, pregnant neighbour – how to live like you have nothing to lose. What might have been a disaster for the Finlay family instead leads to letting go and finding grace in the glorious chaos of life. Babyteeth joyously explores how good it is not to be dead yet and how far we will go for love.",
      "release_date": "2020-06-18"
    },
    {
      "popularity": 54.03,
      "vote_count": 159,
      "video": false,
      "poster_path": "/oyG9TL7FcRP4EZ9Vid6uKzwdndz.jpg",
      "id": 696374,
      "adult": false,
      "backdrop_path": "/fDTPiqCynPQIkojfzdeyRHpw99S.jpg",
      "original_language": "en",
      "original_title": "Gabriel's Inferno",
      "genre_ids": [
        10749
      ],
      "title": "Gabriel's Inferno",
      "vote_average": 8.7,
      "overview": "An intriguing and sinful exploration of seduction, forbidden love, and redemption, Gabriel's Inferno is a captivating and wildly passionate tale of one man's escape from his own personal hell as he tries to earn the impossible--forgiveness and love.",
      "release_date": "2020-05-29"
    },
    {
      "popularity": 52.106,
      "vote_count": 167,
      "video": false,
      "poster_path": "/ygCQnDEqUEIamBpdQdDYnFfxvgM.jpg",
      "id": 339095,
      "adult": false,
      "backdrop_path": "/t93doi7EzoqLFckidrGGnukFPwd.jpg",
      "original_language": "en",
      "original_title": "The Last Days of American Crime",
      "genre_ids": [
        28,
        80,
        53
      ],
      "title": "The Last Days of American Crime",
      "vote_average": 5.7,
      "overview": "In the not-too-distant future, as a final response to crime and terrorism, the U.S. government plans to broadcast a signal that will make it impossible for anyone to knowingly break the law.",
      "release_date": "2020-06-05"
    },
    {
      "popularity": 43.601,
      "vote_count": 1414,
      "video": false,
      "poster_path": "/33VdppGbeNxICrFUtW2WpGHvfYc.jpg",
      "id": 481848,
      "adult": false,
      "backdrop_path": "/9sXHqZTet3Zg5tgcc0hCDo8Tn35.jpg",
      "original_language": "en",
      "original_title": "The Call of the Wild",
      "genre_ids": [
        12,
        18,
        10751
      ],
      "title": "The Call of the Wild",
      "vote_average": 7.4,
      "overview": "Buck is a big-hearted dog whose blissful domestic life is turned upside down when he is suddenly uprooted from his California home and transplanted to the exotic wilds of the Yukon during the Gold Rush of the 1890s. As the newest rookie on a mail delivery dog sled team—and later its leader—Buck experiences the adventure of a lifetime, ultimately finding his true place in the world and becoming his own master.",
      "release_date": "2020-02-19"
    },
    {
      "popularity": 40.592,
      "vote_count": 1304,
      "video": false,
      "poster_path": "/gzlbb3yeVISpQ3REd3Ga1scWGTU.jpg",
      "id": 443791,
      "adult": false,
      "backdrop_path": "/ww7eC3BqSbFsyE5H5qMde8WkxJ2.jpg",
      "original_language": "en",
      "original_title": "Underwater",
      "genre_ids": [
        28,
        27,
        878,
        53
      ],
      "title": "Underwater",
      "vote_average": 6.4,
      "overview": "After an earthquake destroys their underwater station, six researchers must navigate two miles along the dangerous, unknown depths of the ocean floor to make it to safety in a race against time.",
      "release_date": "2020-01-08"
    },
    {
      "popularity": 39.919,
      "vote_count": 140,
      "video": false,
      "poster_path": "/suORidtGKPO6tWwNqiwGvNo85z3.jpg",
      "id": 565743,
      "adult": false,
      "backdrop_path": "/lVSMgZUBE4XTVaPBEBAczre4f1W.jpg",
      "original_language": "en",
      "original_title": "The Vast of Night",
      "genre_ids": [
        18,
        9648,
        878
      ],
      "title": "The Vast of Night",
      "vote_average": 6.7,
      "overview": "At the dawn of the space-race, two radio-obsessed teens discover a strange frequency over the airwaves in what becomes the most important night of their lives and in the history of their small town.",
      "release_date": "2020-05-15"
    },
    {
      "popularity": 38.948,
      "vote_count": 355,
      "video": false,
      "poster_path": "/myf3qzpeN0JbuFRPwSpJcz7rmAT.jpg",
      "id": 458305,
      "adult": false,
      "backdrop_path": "/jZ4YdDCnfK4cO13do9J4JaT8d2O.jpg",
      "original_language": "en",
      "original_title": "Vivarium",
      "genre_ids": [
        27,
        878,
        53
      ],
      "title": "Vivarium",
      "vote_average": 5.8,
      "overview": "A young woman and her fiancé are in search of the perfect starter home. After following a mysterious real estate agent to a new housing development, the couple finds themselves trapped in a maze of identical houses and forced to raise an otherworldly child.",
      "release_date": "2019-07-12"
    },
    {
      "popularity": 38.429,
      "vote_count": 17216,
      "video": false,
      "poster_path": "/f89U3ADr1oiB1s9GkdPOEpXUk5H.jpg",
      "id": 603,
      "adult": false,
      "backdrop_path": "/ByDf0zjLSumz1MP1cDEo2JWVtU.jpg",
      "original_language": "en",
      "original_title": "The Matrix",
      "genre_ids": [
        28,
        878
      ],
      "title": "The Matrix",
      "vote_average": 8.1,
      "overview": "Set in the 22nd century, The Matrix tells the story of a computer hacker who joins a group of underground insurgents fighting the vast and powerful computers who now rule the earth.",
      "release_date": "1999-03-30"
    },
    {
      "popularity": 34.711,
      "vote_count": 10,
      "video": false,
      "poster_path": "/l13mt3oHErSkkqJbN1bjzgtK0Vq.jpg",
      "id": 602147,
      "adult": false,
      "backdrop_path": "/fssh5GyRUrXcS8OtX1b2sVAGh0l.jpg",
      "original_language": "en",
      "original_title": "Inheritance",
      "genre_ids": [
        18,
        9648,
        53
      ],
      "title": "Inheritance",
      "vote_average": 5.9,
      "overview": "A patriarch of a wealthy and powerful family suddenly passes away, leaving his wife and daughter with a shocking secret inheritance that threatens to unravel and destroy their lives.",
      "release_date": "2020-06-18"
    },
    {
      "popularity": 30.146,
      "vote_count": 31,
      "video": false,
      "poster_path": "/2epgo9k2Jrs7qrTL1Rork1mDSKT.jpg",
      "id": 520900,
      "adult": false,
      "backdrop_path": "/n81uCJlECxtlo3liyuwVFqoYfHe.jpg",
      "original_language": "en",
      "original_title": "The Personal History of David Copperfield",
      "genre_ids": [
        35,
        18
      ],
      "title": "The Personal History of David Copperfield",
      "vote_average": 6.4,
      "overview": "A fresh and distinctive take on Charles Dickens’ semi-autobiographical masterpiece, The Personal History of David Copperfield, set in the 1840s, chronicles the life of its iconic title character as he navigates a chaotic world to find his elusive place within it. From his unhappy childhood to the discovery of his gift as a storyteller and writer, David’s journey is by turns hilarious and tragic, but always full of life, colour and humanity.",
      "release_date": "2019-11-07"
    },
    {
      "popularity": 28.784,
      "vote_count": 8,
      "video": false,
      "poster_path": "/qWrPZZL7CC3MqySlOzpXaUWjUrd.jpg",
      "id": 698783,
      "adult": false,
      "backdrop_path": "/smrQPTF62XiEkK5IKxQflaubgBt.jpg",
      "original_language": "en",
      "original_title": "2 Minutes of Fame",
      "genre_ids": [
        35
      ],
      "title": "2 Minutes of Fame",
      "vote_average": 6.8,
      "overview": "An up-and-coming stand-up comic moves to L.A. to pursue a film career after video clips of his act make him an online sensation.",
      "release_date": "2020-06-16"
    },
    {
      "popularity": 28.173,
      "vote_count": 1616,
      "video": false,
      "poster_path": "/3nk9UoepYmv1G9oP18q6JJCeYwN.jpg",
      "id": 503919,
      "adult": false,
      "backdrop_path": "/5BmcysaAASA00FM0gRjD0ClMUY9.jpg",
      "original_language": "en",
      "original_title": "The Lighthouse",
      "genre_ids": [
        18,
        14,
        27,
        9648
      ],
      "title": "The Lighthouse",
      "vote_average": 7.6,
      "overview": "Two lighthouse keepers try to maintain their sanity while living on a remote and mysterious New England island in the 1890s.",
      "release_date": "2019-10-18"
    },
    {
      "popularity": 27.713,
      "vote_count": 712,
      "video": false,
      "poster_path": "/2kNnf7BwRCEm4bcFkdiE0T4U25s.jpg",
      "id": 457335,
      "adult": false,
      "backdrop_path": "/xBHTHkNL1Urhc8K8NHzIih7unjs.jpg",
      "original_language": "en",
      "original_title": "Guns Akimbo",
      "genre_ids": [
        28,
        35
      ],
      "title": "Guns Akimbo",
      "vote_average": 6.4,
      "overview": "An ordinary guy suddenly finds himself forced to fight a gladiator-like battle for a dark website that streams the violence for viewers. Miles must fight heavily armed Nix and also save his kidnapped ex-girlfriend.",
      "release_date": "2019-09-09"
    },
    {
      "popularity": 26.556,
      "vote_count": 3293,
      "video": false,
      "poster_path": "/8ZX18L5m6rH5viSYpRnTSbb9eXh.jpg",
      "id": 619264,
      "adult": false,
      "backdrop_path": "/3tkDMNfM2YuIAJlvGO6rfIzAnfG.jpg",
      "original_language": "es",
      "original_title": "El hoyo",
      "genre_ids": [
        18,
        878,
        53
      ],
      "title": "The Platform",
      "vote_average": 7,
      "overview": "A mysterious place, an indescribable prison, a deep hole. An unknown number of levels. Two inmates living on each level. A descending platform containing food for all of them. An inhuman fight for survival, but also an opportunity for solidarity…",
      "release_date": "2019-11-08"
    },
    {
      "popularity": 26.399,
      "vote_count": 15,
      "video": false,
      "poster_path": "/jZIceEQEp3mlwhgT8eLOMdeWFZX.jpg",
      "id": 696007,
      "adult": false,
      "backdrop_path": "/1xYTUpCutAYgpbqC9Gxw7qIbc0T.jpg",
      "original_language": "en",
      "original_title": "Legacy",
      "genre_ids": [
        28,
        53
      ],
      "title": "Legacy",
      "vote_average": 6.3,
      "overview": "While on a hunting trip in the isolated wilderness, a father and his adopted teenage son are turned into the prey of unknown assailants. They are unexpectedly joined in their fight for survival by a stranger who reveals the disturbing truth about the son's biological father, an international crime lord, and why that crime lord has sent trained assassins to kill the teenager.",
      "release_date": "2020-05-28"
    },
    {
      "popularity": 25.873,
      "vote_count": 403,
      "video": false,
      "poster_path": "/qgrk7r1fV4IjuoeiGS5HOhXNdLJ.jpg",
      "id": 568160,
      "adult": false,
      "backdrop_path": "/ize3ZieqSy0TCWljmVoEiy8fSFS.jpg",
      "original_language": "ja",
      "original_title": "天気の子",
      "genre_ids": [
        12,
        16,
        18,
        14,
        10749
      ],
      "title": "Weathering with You",
      "vote_average": 8,
      "overview": "Tokyo is currently experiencing rain showers that seem to disrupt the usual pace of everyone living there to no end. Amidst this seemingly eternal downpour arrives the runaway high school student Hodaka Morishima, who struggles to financially support himself—ending up with a job at a small-time publisher. At the same time, the orphaned Hina Amano also strives to find work to sustain herself and her younger brother.\r Both fates intertwine when Hodaka attempts to rescue Hina from shady men, deciding to run away together. Subsequently, Hodaka discovers that Hina has a strange yet astounding power: the ability to call out the sun whenever she prays for it. With Tokyo's unusual weather in mind, Hodaka sees the potential of this ability. He suggests that Hina should become a \"sunshine girl\"—someone who will clear the sky for people when they need it the most.\r Things begin looking up for them at first. However, it is common knowledge that power always comes with a hefty price...",
      "release_date": "2019-07-19"
    }
  ],
  "page": 1,
  "total_results": 553,
  "dates": {
    "maximum": "2020-06-25",
    "minimum": "2020-05-08"
  },
  "total_pages": 28
}
